^E:\GAME REMAKE\GAME_1\GAME_1\DEBUG.CPP|E:\GAME REMAKE\GAME_1\GAME_1\GAME.CPP|E:\GAME REMAKE\GAME_1\GAME_1\GAMEOBJECT.CPP|E:\GAME REMAKE\GAME_1\GAME_1\MAIN.CPP
E:\GAME REMAKE\GAME_1\GAME_1\DEBUG\VC142.PDB
E:\GAME REMAKE\GAME_1\GAME_1\DEBUG\VC142.IDB
E:\GAME REMAKE\GAME_1\GAME_1\DEBUG\MAIN.OBJ
E:\GAME REMAKE\GAME_1\GAME_1\DEBUG\GAMEOBJECT.OBJ
E:\GAME REMAKE\GAME_1\GAME_1\DEBUG\GAME.OBJ
E:\GAME REMAKE\GAME_1\GAME_1\DEBUG\DEBUG.OBJ
^E:\GAME REMAKE\GAME_1\GAME_1\GAME.CPP|E:\GAME REMAKE\GAME_1\GAME_1\GAMEOBJECT.CPP|E:\GAME REMAKE\GAME_1\GAME_1\MAIN.CPP
E:\GAME REMAKE\GAME_1\GAME_1\DEBUG\VC142.PDB
E:\GAME REMAKE\GAME_1\GAME_1\DEBUG\VC142.IDB
E:\GAME REMAKE\GAME_1\GAME_1\DEBUG\MAIN.OBJ
E:\GAME REMAKE\GAME_1\GAME_1\DEBUG\GAMEOBJECT.OBJ
E:\GAME REMAKE\GAME_1\GAME_1\DEBUG\GAME.OBJ
^E:\GAME REMAKE\GAME_1\GAME_1\MAIN.CPP|E:\GAME REMAKE\GAME_1\GAME_1\TEXTURES.CPP
E:\GAME REMAKE\GAME_1\GAME_1\DEBUG\VC142.PDB
E:\GAME REMAKE\GAME_1\GAME_1\DEBUG\VC142.IDB
E:\GAME REMAKE\GAME_1\GAME_1\DEBUG\MAIN.OBJ
E:\GAME REMAKE\GAME_1\GAME_1\DEBUG\TEXTURES.OBJ
^E:\GAME REMAKE\GAME_1\GAME_1\DEBUG.CPP|E:\GAME REMAKE\GAME_1\GAME_1\GAMEOBJECT.CPP|E:\GAME REMAKE\GAME_1\GAME_1\MAIN.CPP|E:\GAME REMAKE\GAME_1\GAME_1\SPRITES.CPP|E:\GAME REMAKE\GAME_1\GAME_1\TEXTURES.CPP
E:\GAME REMAKE\GAME_1\GAME_1\DEBUG\VC142.PDB
E:\GAME REMAKE\GAME_1\GAME_1\DEBUG\VC142.IDB
E:\GAME REMAKE\GAME_1\GAME_1\DEBUG\MAIN.OBJ
E:\GAME REMAKE\GAME_1\GAME_1\DEBUG\DEBUG.OBJ
E:\GAME REMAKE\GAME_1\GAME_1\DEBUG\TEXTURES.OBJ
E:\GAME REMAKE\GAME_1\GAME_1\DEBUG\SPRITES.OBJ
E:\GAME REMAKE\GAME_1\GAME_1\DEBUG\GAMEOBJECT.OBJ
^E:\GAME REMAKE\GAME_1\GAME_1\DEBUG.CPP
E:\GAME REMAKE\GAME_1\GAME_1\DEBUG\VC142.PDB
^E:\GAME REMAKE\GAME_1\GAME_1\GAMEOBJECT.CPP|E:\GAME REMAKE\GAME_1\GAME_1\MAIN.CPP|E:\GAME REMAKE\GAME_1\GAME_1\MARIO.CPP
E:\GAME REMAKE\GAME_1\GAME_1\DEBUG\VC142.PDB
E:\GAME REMAKE\GAME_1\GAME_1\DEBUG\VC142.IDB
E:\GAME REMAKE\GAME_1\GAME_1\DEBUG\MARIO.OBJ
E:\GAME REMAKE\GAME_1\GAME_1\DEBUG\MAIN.OBJ
E:\GAME REMAKE\GAME_1\GAME_1\DEBUG\GAMEOBJECT.OBJ
^E:\GAME REMAKE\GAME_1\GAME_1\GAMEOBJECT.CPP|E:\GAME REMAKE\GAME_1\GAME_1\MAIN.CPP|E:\GAME REMAKE\GAME_1\GAME_1\MARIO.CPP|E:\GAME REMAKE\GAME_1\GAME_1\SPRITES.CPP
E:\GAME REMAKE\GAME_1\GAME_1\DEBUG\VC142.PDB
E:\GAME REMAKE\GAME_1\GAME_1\DEBUG\VC142.IDB
E:\GAME REMAKE\GAME_1\GAME_1\DEBUG\SPRITES.OBJ
E:\GAME REMAKE\GAME_1\GAME_1\DEBUG\MARIO.OBJ
E:\GAME REMAKE\GAME_1\GAME_1\DEBUG\MAIN.OBJ
E:\GAME REMAKE\GAME_1\GAME_1\DEBUG\GAMEOBJECT.OBJ
^E:\GAME REMAKE\GAME_1\GAME_1\GAME.CPP|E:\GAME REMAKE\GAME_1\GAME_1\GAMEOBJECT.CPP|E:\GAME REMAKE\GAME_1\GAME_1\MAIN.CPP|E:\GAME REMAKE\GAME_1\GAME_1\MARIO.CPP|E:\GAME REMAKE\GAME_1\GAME_1\SPRITES.CPP|E:\GAME REMAKE\GAME_1\GAME_1\TEXTURES.CPP
E:\GAME REMAKE\GAME_1\GAME_1\DEBUG\VC142.PDB
E:\GAME REMAKE\GAME_1\GAME_1\DEBUG\VC142.IDB
E:\GAME REMAKE\GAME_1\GAME_1\DEBUG\MAIN.OBJ
E:\GAME REMAKE\GAME_1\GAME_1\DEBUG\TEXTURES.OBJ
E:\GAME REMAKE\GAME_1\GAME_1\DEBUG\SPRITES.OBJ
E:\GAME REMAKE\GAME_1\GAME_1\DEBUG\MARIO.OBJ
E:\GAME REMAKE\GAME_1\GAME_1\DEBUG\GAMEOBJECT.OBJ
E:\GAME REMAKE\GAME_1\GAME_1\DEBUG\GAME.OBJ
^E:\GAME REMAKE\GAME_1\GAME_1\MARIO.CPP
E:\GAME REMAKE\GAME_1\GAME_1\DEBUG\VC142.PDB
^E:\GAME REMAKE\GAME_1\GAME_1\GAME.CPP|E:\GAME REMAKE\GAME_1\GAME_1\GAMEOBJECT.CPP|E:\GAME REMAKE\GAME_1\GAME_1\MAIN.CPP|E:\GAME REMAKE\GAME_1\GAME_1\SPRITES.CPP|E:\GAME REMAKE\GAME_1\GAME_1\TEXTURES.CPP
E:\GAME REMAKE\GAME_1\GAME_1\DEBUG\VC142.PDB
E:\GAME REMAKE\GAME_1\GAME_1\DEBUG\VC142.IDB
E:\GAME REMAKE\GAME_1\GAME_1\DEBUG\MAIN.OBJ
E:\GAME REMAKE\GAME_1\GAME_1\DEBUG\TEXTURES.OBJ
E:\GAME REMAKE\GAME_1\GAME_1\DEBUG\SPRITES.OBJ
E:\GAME REMAKE\GAME_1\GAME_1\DEBUG\GAMEOBJECT.OBJ
E:\GAME REMAKE\GAME_1\GAME_1\DEBUG\GAME.OBJ
^E:\GAME REMAKE\GAME_1\GAME_1\GAME.CPP
E:\GAME REMAKE\GAME_1\GAME_1\DEBUG\VC142.PDB
^E:\GAME REMAKE\GAME_1\GAME_1\GAMEOBJECT.CPP
E:\GAME REMAKE\GAME_1\GAME_1\DEBUG\VC142.PDB
^E:\GAME REMAKE\GAME_1\GAME_1\SPRITES.CPP
E:\GAME REMAKE\GAME_1\GAME_1\DEBUG\VC142.PDB
^E:\GAME REMAKE\GAME_1\GAME_1\TEXTURES.CPP
E:\GAME REMAKE\GAME_1\GAME_1\DEBUG\VC142.PDB
^E:\GAME REMAKE\GAME_1\GAME_1\MAIN.CPP
E:\GAME REMAKE\GAME_1\GAME_1\DEBUG\VC142.PDB
